xps_base/XPS_ROACH_base/pcores/opb_adc5g_controller_v1_00_a/tb/dump.vcd
$date
	Fri Jul 13 12:17:51 2012
$end
$version
	Icarus Verilog
$end
$timescale
	10ps
$end
$scope module TB_opb_adc5g_controller $end
$var wire 32 ! OPB_ABus [0:31] $end
$var wire 4 " OPB_BE [0:3] $end
$var wire 1 # OPB_Clk $end
$var wire 32 $ OPB_DBus [0:31] $end
$var wire 1 % OPB_RNW $end
$var wire 1 & OPB_Rst $end
$var wire 1 ' OPB_select $end
$var wire 1 ( OPB_seqAddr $end
$var wire 32 ) Sl_DBus [0:31] $end
$var wire 1 * Sl_errAck $end
$var wire 1 + Sl_retry $end
$var wire 1 , Sl_toutSup $end
$var wire 1 - Sl_xferAck $end
$var wire 1 . adc0_adc3wire_clk $end
$var wire 1 / adc0_adc3wire_data $end
$var wire 1 0 adc0_adc3wire_data_o $end
$var wire 1 1 adc0_clk $end
$var wire 1 2 adc0_dcm_reset $end
$var wire 1 3 adc0_modepin $end
$var wire 1 4 adc0_psclk $end
$var wire 1 5 adc0_psdone $end
$var wire 1 6 adc0_psen $end
$var wire 1 7 adc0_psincdec $end
$var wire 1 8 adc0_reset $end
$var wire 1 9 adc1_adc3wire_clk $end
$var wire 1 : adc1_adc3wire_data $end
$var wire 1 ; adc1_adc3wire_data_o $end
$var wire 1 < adc1_clk $end
$var wire 1 = adc1_dcm_reset $end
$var wire 1 > adc1_modepin $end
$var wire 1 ? adc1_psclk $end
$var wire 1 @ adc1_psdone $end
$var wire 1 A adc1_psen $end
$var wire 1 B adc1_psincdec $end
$var wire 1 C adc1_reset $end
$var wire 1 D sys_clk $end
$var wire 1 E sys_rst $end
$var reg 5 F config0_cntr [4:0] $end
$var reg 24 G config0_data [23:0] $end
$var reg 1 H config0_data_o $end
$var reg 16 I config0_data_o_shift [15:0] $end
$var reg 1 J config0_reading $end
$var reg 5 K config1_cntr [4:0] $end
$var reg 24 L config1_data [23:0] $end
$var reg 1 M config1_data_o $end
$var reg 16 N config1_data_o_shift [15:0] $end
$var reg 1 O config1_reading $end
$var reg 32 P opb_addr [31:0] $end
$var reg 4 Q opb_be [3:0] $end
$var reg 32 R opb_data [31:0] $end
$var reg 1 S opb_rnw $end
$var reg 1 T opb_select $end
$var reg 32 U progress [31:0] $end
$var reg 1 V reset $end
$var reg 32 W sys_clk_counter [31:0] $end
$scope module opb_adc5g_controller_inst $end
$var wire 32 X OPB_ABus [0:31] $end
$var wire 4 Y OPB_BE [0:3] $end
$var wire 1 # OPB_Clk $end
$var wire 32 Z OPB_DBus [0:31] $end
$var wire 1 % OPB_RNW $end
$var wire 1 & OPB_Rst $end
$var wire 1 ' OPB_select $end
$var wire 1 ( OPB_seqAddr $end
$var wire 32 [ Sl_DBus [0:31] $end
$var wire 1 * Sl_errAck $end
$var wire 1 + Sl_retry $end
$var wire 1 , Sl_toutSup $end
$var wire 1 - Sl_xferAck $end
$var wire 1 . adc0_adc3wire_clk $end
$var wire 1 / adc0_adc3wire_data $end
$var wire 1 0 adc0_adc3wire_data_o $end
$var wire 1 \ adc0_adc3wire_spi_rst $end
$var wire 1 1 adc0_clk $end
$var wire 8 ] adc0_config_addr [7:0] $end
$var wire 16 ^ adc0_config_data [15:0] $end
$var wire 1 _ adc0_config_done $end
$var wire 1 ` adc0_config_start $end
$var wire 1 a adc0_dcm_locked $end
$var wire 1 2 adc0_dcm_reset $end
$var wire 16 b adc0_fifo_empty_cnt [15:0] $end
$var wire 16 c adc0_fifo_full_cnt [15:0] $end
$var wire 1 3 adc0_modepin $end
$var wire 1 4 adc0_psclk $end
$var wire 1 5 adc0_psdone $end
$var wire 1 6 adc0_psen $end
$var wire 1 7 adc0_psincdec $end
$var wire 16 d adc0_read_data [15:0] $end
$var wire 1 8 adc0_reset $end
$var wire 1 e adc0_reset_wire $end
$var wire 1 9 adc1_adc3wire_clk $end
$var wire 1 : adc1_adc3wire_data $end
$var wire 1 ; adc1_adc3wire_data_o $end
$var wire 1 f adc1_adc3wire_spi_rst $end
$var wire 1 < adc1_clk $end
$var wire 8 g adc1_config_addr [7:0] $end
$var wire 16 h adc1_config_data [15:0] $end
$var wire 1 i adc1_config_done $end
$var wire 1 j adc1_config_start $end
$var wire 1 k adc1_dcm_locked $end
$var wire 1 = adc1_dcm_reset $end
$var wire 16 l adc1_fifo_empty_cnt [15:0] $end
$var wire 16 m adc1_fifo_full_cnt [15:0] $end
$var wire 1 > adc1_modepin $end
$var wire 1 ? adc1_psclk $end
$var wire 1 @ adc1_psdone $end
$var wire 1 A adc1_psen $end
$var wire 1 B adc1_psincdec $end
$var wire 16 n adc1_read_data [15:0] $end
$var wire 1 C adc1_reset $end
$var wire 1 o adc1_reset_wire $end
$var wire 1 p addr_match $end
$var wire 1 q clk0_en $end
$var wire 1 r clk0_falling $end
$var wire 1 s clk0_midhigh $end
$var wire 1 t clk0_prerise $end
$var wire 1 u clk1_en $end
$var wire 1 v clk1_falling $end
$var wire 1 w clk1_midhigh $end
$var wire 1 x clk1_prerise $end
$var wire 32 y opb_addr [31:0] $end
$var reg 8 z adc0_config_addr_reg [7:0] $end
$var reg 16 { adc0_config_data_reg [15:0] $end
$var reg 24 | adc0_config_data_shift [23:0] $end
$var reg 5 } adc0_config_progress [4:0] $end
$var reg 1 ~ adc0_config_start_reg $end
$var reg 1 !" adc0_config_writing $end
$var reg 16 "" adc0_dcm_unlocked_cnt [15:0] $end
$var reg 1 #" adc0_mmcm_psen_reg $end
$var reg 1 $" adc0_mmcm_psincdec_reg $end
$var reg 16 %" adc0_read_data_reg [15:0] $end
$var reg 16 &" adc0_read_data_shift [15:0] $end
$var reg 8 '" adc0_reset_counter [7:0] $end
$var reg 1 (" adc0_reset_iob $end
$var reg 1 )" adc0_reset_reg $end
$var reg 1 *" adc0_startup $end
$var reg 24 +" adc0_startup_data [23:0] $end
$var reg 1 ," adc0_startup_reset $end
$var reg 4 -" adc0_state [3:0] $end
$var reg 8 ." adc1_config_addr_reg [7:0] $end
$var reg 16 /" adc1_config_data_reg [15:0] $end
$var reg 24 0" adc1_config_data_shift [23:0] $end
$var reg 5 1" adc1_config_progress [4:0] $end
$var reg 1 2" adc1_config_start_reg $end
$var reg 1 3" adc1_config_writing $end
$var reg 16 4" adc1_dcm_unlocked_cnt [15:0] $end
$var reg 1 5" adc1_mmcm_psen_reg $end
$var reg 1 6" adc1_mmcm_psincdec_reg $end
$var reg 16 7" adc1_read_data_reg [15:0] $end
$var reg 16 8" adc1_read_data_shift [15:0] $end
$var reg 8 9" adc1_reset_counter [7:0] $end
$var reg 1 :" adc1_reset_iob $end
$var reg 1 ;" adc1_reset_reg $end
$var reg 1 <" adc1_startup $end
$var reg 24 =" adc1_startup_data [23:0] $end
$var reg 1 >" adc1_startup_reset $end
$var reg 4 ?" adc1_state [3:0] $end
$var reg 5 @" clk0_counter [4:0] $end
$var reg 5 A" clk1_counter [4:0] $end
$var reg 1 B" opb_ack $end
$var reg 32 C" opb_data_out [31:0] $end
$upscope $end
$upscope $end
$enddefinitions $end
#0
$dumpvars
bx C"
0B"
b0 A"
b0 @"
b1 ?"
x>"
b100000010001001111000100 ="
x<"
0;"
1:"
b10000 9"
bx 8"
bx 7"
x6"
05"
b0 4"
03"
02"
bx 1"
bx 0"
bx /"
bx ."
b1 -"
x,"
b100000010001001111000100 +"
x*"
0)"
1("
b10000 '"
bx &"
bx %"
x$"
0#"
b0 ""
0!"
0~
bx }
bx |
bx {
bx z
bx y
0x
0w
1v
1u
0t
0s
1r
1q
xp
0o
bx n
bz m
bz l
zk
0j
0i
bx h
bx g
1f
0e
bx d
bz c
bz b
za
0`
0_
bx ^
bx ]
1\
b0 [
bx Z
bx Y
bx X
b0 W
1V
b0 U
0T
xS
bx R
bx Q
bx P
xO
b1111001000 N
0M
bx L
b0 K
xJ
b1111001000 I
0H
bx G
b0 F
1E
1D
1C
xB
0A
z@
1?
1>
x=
z<
0;
x:
09
18
x7
06
z5
14
13
x2
z1
00
x/
0.
0-
0,
0+
0*
b0 )
z(
0'
1&
x%
bx $
1#
bx "
bx !
$end
#100
b1 W
#200
b10 W
0D
0#
04
0?
#300
b11 W
#400
b1 A"
0v
b1 @"
0r
b0 W
1D
1#
14
1?
#500
b1 W
#600
b10 W
0D
0#
04
0?
#700
b11 W
#800
b10 @"
b10 A"
b0 W
1D
1#
14
1?
#900
b1 W
#1000
b10 W
0D
0#
04
0?
#1100
b11 W
#1200
b11 A"
b11 @"
b0 W
1D
1#
14
1?
#1300
b1 W
#1400
b10 W
0D
0#
04
0?
#1500
b11 W
#1600
b100 @"
b100 A"
b0 W
1D
1#
14
1?
#1700
b1 W
#1800
b10 W
0D
0#
04
0?
#1900
b11 W
#2000
1p
b0 y
1:
1/
b1 U
1T
1'
b1 Q
b1 "
b1 Y
b0 P
b0 !
b0 X
0S
0%
b11 R
b11 $
b11 Z
b101 A"
b100000010001001111000100 0"
13"
b0 8"
b10 ?"
1<"
1=
b101 @"
b100000010001001111000100 |
1!"
b0 &"
b10 -"
1*"
12
b1111 9"
b1111 '"
0:"
0("
b0 W
1D
1#
14
1?
0V
0E
0&
#2100
b1 W
#2200
b10 W
0D
0#
04
0?
#2300
b11 W
#2400
bx )
bx [
1;"
1o
1)"
1e
1B"
1-
b1110 9"
b1110 '"
b110 @"
b110 A"
b0 W
1D
1#
14
1?
#2500
b1 W
#2600
b10 W
0D
0#
04
0?
#2700
b11 W
#2800
b100 y
b0 )
b0 [
b10 U
b1111 Q
b1111 "
b1111 Y
b100 P
b100 !
b100 X
b11110010001000000100000001 R
b11110010001000000100000001 $
b11110010001000000100000001 Z
b111 A"
b111 @"
b10000 9"
b10000 '"
1:"
1("
0;"
0o
0)"
0e
0B"
0-
b0 W
1D
1#
14
1?
#2900
b1 W
#3000
b10 W
0D
0#
04
0?
#3100
b11 W
#3200
b1111 9"
b1111 '"
0:"
0("
b1000 @"
b1000 A"
b0 W
1D
1#
14
1?
#3300
b1 W
#3400
b10 W
0D
0#
04
0?
#3500
b11 W
#3600
b1001 A"
b1001 @"
b1110 9"
b1110 '"
b0 W
1D
1#
14
1?
#3700
b1 W
#3800
b10 W
0D
0#
04
0?
#3900
b11 W
#4000
b1101 9"
b1101 '"
b1010 @"
b1010 A"
b0 W
1D
1#
14
1?
#4100
b1 W
#4200
b10 W
0D
0#
04
0?
#4300
b11 W
#4400
b1011 A"
b1011 @"
b1100 9"
b1100 '"
b0 W
1D
1#
14
1?
#4500
b1 W
#4600
b10 W
0D
0#
04
0?
#4700
b11 W
#4800
b1011 9"
b1011 '"
b1100 @"
b1100 A"
b0 W
1D
1#
14
1?
#4900
b1 W
#5000
b10 W
0D
0#
04
0?
#5100
b11 W
#5200
b1101 A"
b1101 @"
b1010 9"
b1010 '"
b0 W
1D
1#
14
1?
#5300
b1 W
#5400
b10 W
0D
0#
04
0?
#5500
b11 W
#5600
b1001 9"
b1001 '"
b1110 @"
b1110 A"
b0 W
1D
1#
14
1?
#5700
b1 W
#5800
b10 W
0D
0#
04
0?
#5900
b11 W
#6000
b1111 A"
1x
b1111 @"
1t
b1000 9"
b1000 '"
b0 W
1D
1#
14
1?
#6100
b1 W
#6200
b10 W
0D
0#
04
0?
#6300
b11 W
#6400
1.
19
b111 9"
b111 '"
b10000 @"
0t
b10000 A"
0x
b0 W
1D
1#
14
1?
#6500
b1 W
#6600
b10 W
0D
0#
04
0?
#6700
b11 W
#6800
b10001 A"
b10001 @"
b110 9"
b110 '"
b0 W
1D
1#
14
1?
#6900
b1 W
#7000
b10 W
0D
0#
04
0?
#7100
b11 W
#7200
b101 9"
b101 '"
b10010 @"
b10010 A"
b0 W
1D
1#
14
1?
#7300
b1 W
#7400
b10 W
0D
0#
04
0?
#7500
b11 W
#7600
b10011 A"
b10011 @"
b100 9"
b100 '"
b0 W
1D
1#
14
1?
#7700
b1 W
#7800
b10 W
0D
0#
04
0?
#7900
b11 W
#8000
b11 9"
b11 '"
b10100 @"
b10100 A"
b0 W
1D
1#
14
1?
#8100
b1 W
#8200
b10 W
0D
0#
04
0?
#8300
b11 W
#8400
b10101 A"
b10101 @"
b10 9"
b10 '"
b0 W
1D
1#
14
1?
#8500
b1 W
#8600
b10 W
0D
0#
04
0?
#8700
b11 W
#8800
b1 9"
b1 '"
b10110 @"
b10110 A"
b0 W
1D
1#
14
1?
#8900
b1 W
#9000
b10 W
0D
0#
04
0?
#9100
b11 W
#9200
b10111 A"
b10111 @"
b0 9"
0C
b0 '"
08
b0 W
1D
1#
14
1?
#9300
b1 W
#9400
b10 W
0D
0#
04
0?
#9500
b11 W
#9600
b11000 @"
1s
b11000 A"
1w
b0 W
1D
1#
14
1?
#9700
b1 W
#9800
b10 W
0D
0#
04
0?
#9900
b11 W
#10000
b11001 A"
0w
b11001 @"
0s
b0 W
1D
1#
14
1?
#10100
b1 W
#10200
b10 W
0D
0#
04
0?
#10300
b11 W
#10400
b11010 @"
b11010 A"
b0 W
1D
1#
14
1?
#10500
b1 W
#10600
b10 W
0D
0#
04
0?
#10700
b11 W
#10800
b11011 A"
b11011 @"
b0 W
1D
1#
14
1?
#10900
b1 W
#11000
b10 W
0D
0#
04
0?
#11100
b11 W
#11200
b11100 @"
b11100 A"
b0 W
1D
1#
14
1?
#11300
b1 W
#11400
b10 W
0D
0#
04
0?
#11500
b11 W
#11600
b11101 A"
b11101 @"
b0 W
1D
1#
14
1?
#11700
b1 W
#11800
b10 W
0D
0#
04
0?
#11900
b11 W
#12000
b11110 @"
b11110 A"
b0 W
1D
1#
14
1?
#12100
b1 W
#12200
b10 W
0D
0#
04
0?
#12300
b11 W
#12400
b11111 A"
b11111 @"
b0 W
1D
1#
14
1?
#12500
b1 W
#12600
b10 W
0D
0#
04
0?
#12700
b11 W
#12800
0.
09
b0 @"
1r
b0 A"
1v
b0 W
1D
1#
14
1?
#12900
b1 W
#13000
b10 W
0D
0#
04
0?
#13100
b11 W
#13200
0>
03
b1 A"
0v
b0 1"
b100 ?"
b1 @"
0r
b0 }
b100 -"
b0 W
1D
1#
14
1?
#13300
b1 W
#13400
b10 W
0D
0#
04
0?
#13500
b11 W
#13600
b10 @"
b10 A"
b0 W
1D
1#
14
1?
#13700
b1 W
#13800
b10 W
0D
0#
04
0?
#13900
b11 W
#14000
b11 A"
b11 @"
b0 W
1D
1#
14
1?
#14100
b1 W
#14200
b10 W
0D
0#
04
0?
#14300
b11 W
#14400
b100 @"
b100 A"
b0 W
1D
1#
14
1?
#14500
b1 W
#14600
b10 W
0D
0#
04
0?
#14700
b11 W
#14800
b101 A"
b101 @"
b0 W
1D
1#
14
1?
#14900
b1 W
#15000
b10 W
0D
0#
04
0?
#15100
b11 W
#15200
b110 @"
b110 A"
b0 W
1D
1#
14
1?
#15300
b1 W
#15400
b10 W
0D
0#
04
0?
#15500
b11 W
#15600
b111 A"
b111 @"
b0 W
1D
1#
14
1?
#15700
b1 W
#15800
b10 W
0D
0#
04
0?
#15900
b11 W
#16000
b1000 @"
b1000 A"
b0 W
1D
1#
14
1?
#16100
b1 W
#16200
b10 W
0D
0#
04
0?
#16300
b11 W
#16400
b1001 A"
b1001 @"
b0 W
1D
1#
14
1?
#16500
b1 W
#16600
b10 W
0D
0#
04
0?
#16700
b11 W
#16800
b1010 @"
b1010 A"
b0 W
1D
1#
14
1?
#16900
b1 W
#17000
b10 W
0D
0#
04
0?
#17100
b11 W
#17200
b1011 A"
b1011 @"
b0 W
1D
1#
14
1?
#17300
b1 W
#17400
b10 W
0D
0#
04
0?
#17500
b11 W
#17600
b1100 @"
b1100 A"
b0 W
1D
1#
14
1?
#17700
b1 W
#17800
b10 W
0D
0#
04
0?
#17900
b11 W
#18000
b1101 A"
b1101 @"
b0 W
1D
1#
14
1?
#18100
b1 W
#18200
b10 W
0D
0#
04
0?
#18300
b11 W
#18400
b1110 @"
b1110 A"
b0 W
1D
1#
14
1?
#18500
b1 W
#18600
b10 W
0D
0#
04
0?
#18700
b11 W
#18800
b1111 A"
1x
b1111 @"
1t
b0 W
1D
1#
14
1?
#18900
b1 W
#19000
b10 W
0D
0#
04
0?
#19100
b11 W
#19200
b1 F
b1xxxxxxxxxxxxxxxxxxxxxxx G
b1 K
b1xxxxxxxxxxxxxxxxxxxxxxx L
1.
19
b10000 @"
0t
b10000 A"
0x
b0 W
1D
1#
14
1?
#19300
b1 W
#19400
b10 W
0D
0#
04
0?
#19500
b11 W
#19600
b10001 A"
b10001 @"
b0 W
1D
1#
14
1?
#19700
b1 W
#19800
b10 W
0D
0#
04
0?
#19900
b11 W
#20000
b10010 @"
b10010 A"
b0 W
1D
1#
14
1?
#20100
b1 W
#20200
b10 W
0D
0#
04
0?
#20300
b11 W
#20400
b10011 A"
b10011 @"
b0 W
1D
1#
14
1?
#20500
b1 W
#20600
b10 W
0D
0#
04
0?
#20700
b11 W
#20800
b10100 @"
b10100 A"
b0 W
1D
1#
14
1?
#20900
b1 W
#21000
b10 W
0D
0#
04
0?
#21100
b11 W
#21200
b10101 A"
b10101 @"
b0 W
1D
1#
14
1?
#21300
b1 W
#21400
b10 W
0D
0#
04
0?
#21500
b11 W
#21600
b10110 @"
b10110 A"
b0 W
1D
1#
14
1?
#21700
b1 W
#21800
b10 W
0D
0#
04
0?
#21900
b11 W
#22000
b10111 A"
b10111 @"
b0 W
1D
1#
14
1?
#22100
b1 W
#22200
b10 W
0D
0#
04
0?
#22300
b11 W
#22400
b11000 @"
1s
b11000 A"
1w
b0 W
1D
1#
14
1?
#22500
b1 W
#22600
b10 W
0D
0#
04
0?
#22700
b11 W
#22800
b11001 A"
0w
b11001 @"
0s
b0 W
1D
1#
14
1?
#22900
b1 W
#23000
b10 W
0D
0#
04
0?
#23100
b11 W
#23200
b11010 @"
b11010 A"
b0 W
1D
1#
14
1?
#23300
b1 W
#23400
b10 W
0D
0#
04
0?
#23500
b11 W
#23600
b11011 A"
b11011 @"
b0 W
1D
1#
14
1?
#23700
b1 W
#23800
b10 W
0D
0#
04
0?
#23900
b11 W
#24000
b11100 @"
b11100 A"
b0 W
1D
1#
14
1?
#24100
b1 W
#24200
b10 W
0D
0#
04
0?
#24300
b11 W
#24400
b11101 A"
b11101 @"
b0 W
1D
1#
14
1?
#24500
b1 W
#24600
b10 W
0D
0#
04
0?
#24700
b11 W
#24800
b11110 @"
b11110 A"
b0 W
1D
1#
14
1?
#24900
b1 W
#25000
b10 W
0D
0#
04
0?
#25100
b11 W
#25200
b11111 A"
b11111 @"
b0 W
1D
1#
14
1?
#25300
b1 W
#25400
b10 W
0D
0#
04
0?
#25500
b11 W
#25600
0.
09
b0 @"
1r
b0 A"
1v
b0 W
1D
1#
14
1?
#25700
b1 W
#25800
b10 W
0D
0#
04
0?
#25900
b11 W
#26000
0:
0/
b1 A"
0v
b1 1"
b100010011110001000 0"
b1 @"
0r
b1 }
b100010011110001000 |
b0 W
1D
1#
14
1?
#26100
b1 W
#26200
b10 W
0D
0#
04
0?
#26300
b11 W
#26400
b10 @"
b10 A"
b0 W
1D
1#
14
1?
#26500
b1 W
#26600
b10 W
0D
0#
04
0?
#26700
b11 W
#26800
b11 A"
b11 @"
b0 W
1D
1#
14
1?
#26900
b1 W
#27000
b10 W
0D
0#
04
0?
#27100
b11 W
#27200
b100 @"
b100 A"
b0 W
1D
1#
14
1?
#27300
b1 W
#27400
b10 W
0D
0#
04
0?
#27500
b11 W
#27600
b101 A"
b101 @"
b0 W
1D
1#
14
1?
#27700
b1 W
#27800
b10 W
0D
0#
04
0?
#27900
b11 W
#28000
b110 @"
b110 A"
b0 W
1D
1#
14
1?
#28100
b1 W
#28200
b10 W
0D
0#
04
0?
#28300
b11 W
#28400
b111 A"
b111 @"
b0 W
1D
1#
14
1?
#28500
b1 W
#28600
b10 W
0D
0#
04
0?
#28700
b11 W
#28800
b1000 @"
b1000 A"
b0 W
1D
1#
14
1?
#28900
b1 W
#29000
b10 W
0D
0#
04
0?
#29100
b11 W
#29200
b1001 A"
b1001 @"
b0 W
1D
1#
14
1?
#29300
b1 W
#29400
b10 W
0D
0#
04
0?
#29500
b11 W
#29600
b1010 @"
b1010 A"
b0 W
1D
1#
14
1?
#29700
b1 W
#29800
b10 W
0D
0#
04
0?
#29900
b11 W
#30000
b1011 A"
b1011 @"
b0 W
1D
1#
14
1?
#30100
b1 W
#30200
b10 W
0D
0#
04
0?
#30300
b11 W
#30400
b1100 @"
b1100 A"
b0 W
1D
1#
14
1?
#30500
b1 W
#30600
b10 W
0D
0#
04
0?
#30700
b11 W
#30800
b1101 A"
b1101 @"
b0 W
1D
1#
14
1?
#30900
b1 W
#31000
b10 W
0D
0#
04
0?
#31100
b11 W
#31200
b1110 @"
b1110 A"
b0 W
1D
1#
14
1?
#31300
b1 W
#31400
b10 W
0D
0#
04
0?
#31500
b11 W
#31600
b1111 A"
1x
b1111 @"
1t
b0 W
1D
1#
14
1?
#31700
b1 W
#31800
b10 W
0D
0#
04
0?
#31900
b11 W
#32000
b10 F
b10xxxxxxxxxxxxxxxxxxxxxx G
b10 K
b10xxxxxxxxxxxxxxxxxxxxxx L
1.
19
b10000 @"
0t
b10000 A"
0x
b0 W
1D
1#
14
1?
#32100
b1 W
#32200
b10 W
0D
0#
04
0?
#32300
b11 W
#32400
b10001 A"
b10001 @"
b0 W
1D
1#
14
1?
#32500
b1 W
#32600
b10 W
0D
0#
04
0?
#32700
b11 W
#32800
b10010 @"
b10010 A"
b0 W
1D
1#
14
1?
#32900
b1 W
#33000
b10 W
0D
0#
04
0?
#33100
b11 W
#33200
b10011 A"
b10011 @"
b0 W
1D
1#
14
1?
#33300
b1 W
#33400
b10 W
0D
0#
04
0?
#33500
b11 W
#33600
b10100 @"
b10100 A"
b0 W
1D
1#
14
1?
#33700
b1 W
#33800
b10 W
0D
0#
04
0?
#33900
b11 W
#34000
b10101 A"
b10101 @"
b0 W
1D
1#
14
1?
#34100
b1 W
#34200
b10 W
0D
0#
04
0?
#34300
b11 W
#34400
b10110 @"
b10110 A"
b0 W
1D
1#
14
1?
#34500
b1 W
#34600
b10 W
0D
0#
04
0?
#34700
b11 W
#34800
b10111 A"
b10111 @"
b0 W
1D
1#
14
1?
#34900
b1 W
#35000
b10 W
0D
0#
04
0?
#35100
b11 W
#35200
b11000 @"
1s
b11000 A"
1w
b0 W
1D
1#
14
1?
#35300
b1 W
#35400
b10 W
0D
0#
04
0?
#35500
b11 W
#35600
b11001 A"
0w
b11001 @"
0s
b0 W
1D
1#
14
1?
#35700
b1 W
#35800
b10 W
0D
0#
04
0?
#35900
b11 W
#36000
b11010 @"
b11010 A"
b0 W
1D
1#
14
1?
#36100
b1 W
#36200
b10 W
0D
0#
04
0?
#36300
b11 W
#36400
b11011 A"
b11011 @"
b0 W
1D
1#
14
1?
#36500
b1 W
#36600
b10 W
0D
0#
04
0?
#36700
b11 W
#36800
b11100 @"
b11100 A"
b0 W
1D
1#
14
1?
#36900
b1 W
#37000
b10 W
0D
0#
04
0?
#37100
b11 W
#37200
b11101 A"
b11101 @"
b0 W
1D
1#
14
1?
#37300
b1 W
#37400
b10 W
0D
0#
04
0?
#37500
b11 W
#37600
b11110 @"
b11110 A"
b0 W
1D
1#
14
1?
#37700
b1 W
#37800
b10 W
0D
0#
04
0?
#37900
b11 W
#38000
b11111 A"
b11111 @"
b0 W
1D
1#
14
1?
#38100
b1 W
#38200
b10 W
0D
0#
04
0?
#38300
b11 W
#38400
0.
09
b0 @"
1r
b0 A"
1v
b0 W
1D
1#
14
1?
#38500
b1 W
#38600
b10 W
0D
0#
04
0?
#38700
b11 W
#38800
b1 A"
0v
b10 1"
b1000100111100010000 0"
b1 @"
0r
b10 }
b1000100111100010000 |
b0 W
1D
1#
14
1?
#38900
b1 W
#39000
b10 W
0D
0#
04
0?
#39100
b11 W
#39200
b10 @"
b10 A"
b0 W
1D
1#
14
1?
#39300
b1 W
#39400
b10 W
0D
0#
04
0?
#39500
b11 W
#39600
b11 A"
b11 @"
b0 W
1D
1#
14
1?
#39700
b1 W
#39800
b10 W
0D
0#
04
0?
#39900
b11 W
#40000
b100 @"
b100 A"
b0 W
1D
1#
14
1?
#40100
b1 W
#40200
b10 W
0D
0#
04
0?
#40300
b11 W
#40400
b101 A"
b101 @"
b0 W
1D
1#
14
1?
#40500
b1 W
#40600
b10 W
0D
0#
04
0?
#40700
b11 W
#40800
b110 @"
b110 A"
b0 W
1D
1#
14
1?
#40900
b1 W
#41000
b10 W
0D
0#
04
0?
#41100
b11 W
#41200
b111 A"
b111 @"
b0 W
1D
1#
14
1?
#41300
b1 W
#41400
b10 W
0D
0#
04
0?
#41500
b11 W
#41600
b1000 @"
b1000 A"
b0 W
1D
1#
14
1?
#41700
b1 W
#41800
b10 W
0D
0#
04
0?
#41900
b11 W
#42000
b1001 A"
b1001 @"
b0 W
1D
1#
14
1?
#42100
b1 W
#42200
b10 W
0D
0#
04
0?
#42300
b11 W
#42400
b1010 @"
b1010 A"
b0 W
1D
1#
14
1?
#42500
b1 W
#42600
b10 W
0D
0#
04
0?
#42700
b11 W
#42800
b1011 A"
b1011 @"
b0 W
1D
1#
14
1?
#42900
b1 W
#43000
b10 W
0D
0#
04
0?
#43100
b11 W
#43200
b1100 @"
b1100 A"
b0 W
1D
1#
14
1?
#43300
b1 W
#43400
b10 W
0D
0#
04
0?
#43500
b11 W
#43600
b1101 A"
b1101 @"
b0 W
1D
1#
14
1?
#43700
b1 W
#43800
b10 W
0D
0#
04
0?
#43900
b11 W
#44000
b1110 @"
b1110 A"
b0 W
1D
1#
14
1?
#44100
b1 W
#44200
b10 W
0D
0#
04
0?
#44300
b11 W
#44400
b1111 A"
1x
b1111 @"
1t
b0 W
1D
1#
14
1?
#44500
b1 W
#44600
b10 W
0D
0#
04
0?
#44700
b11 W
#44800
b11 F
b100xxxxxxxxxxxxxxxxxxxxx G
b11 K
b100xxxxxxxxxxxxxxxxxxxxx L
1.
19
b10000 @"
0t
b10000 A"
0x
b0 W
1D
1#
14
1?
#44900
b1 W
#45000
b10 W
0D
0#
04
0?
#45100
b11 W
#45200
b10001 A"
b10001 @"
b0 W
1D
1#
14
1?
#45300
b1 W
#45400
b10 W
0D
0#
04
0?
#45500
b11 W
#45600
b10010 @"
b10010 A"
b0 W
1D
1#
14
1?
#45700
b1 W
#45800
b10 W
0D
0#
04
0?
#45900
b11 W
#46000
b10011 A"
b10011 @"
b0 W
1D
1#
14
1?
#46100
b1 W
#46200
b10 W
0D
0#
04
0?
#46300
b11 W
#46400
b10100 @"
b10100 A"
b0 W
1D
1#
14
1?
#46500
b1 W
#46600
b10 W
0D
0#
04
0?
#46700
b11 W
#46800
b10101 A"
b10101 @"
b0 W
1D
1#
14
1?
#46900
b1 W
#47000
b10 W
0D
0#
04
0?
#47100
b11 W
#47200
b10110 @"
b10110 A"
b0 W
1D
1#
14
1?
#47300
b1 W
#47400
b10 W
0D
0#
04
0?
#47500
b11 W
#47600
b10111 A"
b10111 @"
b0 W
1D
1#
14
1?
#47700
b1 W
#47800
b10 W
0D
0#
04
0?
#47900
b11 W
#48000
b11000 @"
1s
b11000 A"
1w
b0 W
1D
1#
14
1?
#48100
b1 W
#48200
b10 W
0D
0#
04
0?
#48300
b11 W
#48400
b11001 A"
0w
b11001 @"
0s
b0 W
1D
1#
14
1?
#48500
b1 W
#48600
b10 W
0D
0#
04
0?
#48700
b11 W
#48800
b11010 @"
b11010 A"
b0 W
1D
1#
14
1?
#48900
b1 W
#49000
b10 W
0D
0#
04
0?
#49100
b11 W
#49200
b11011 A"
b11011 @"
b0 W
1D
1#
14
1?
#49300
b1 W
#49400
b10 W
0D
0#
04
0?
#49500
b11 W
#49600
b11100 @"
b11100 A"
b0 W
1D
1#
14
1?
#49700
b1 W
#49800
b10 W
0D
0#
04
0?
#49900
b11 W
#50000
b11101 A"
b11101 @"
b0 W
1D
1#
14
1?
#50100
b1 W
#50200
b10 W
0D
0#
04
0?
#50300
b11 W
#50400
b11110 @"
b11110 A"
b0 W
1D
1#
14
1?
#50500
b1 W
#50600
b10 W
0D
0#
04
0?
#50700
b11 W
#50800
b11111 A"
b11111 @"
b0 W
1D
1#
14
1?
#50900
b1 W
#51000
b10 W
0D
0#
04
0?
#51100
b11 W
#51200
0.
09
b0 @"
1r
b0 A"
1v
b0 W
1D
1#
14
1?
#51300
b1 W
#51400
b10 W
0D
0#
04
0?
#51500
b11 W
#51600
b1 A"
0v
b11 1"
b10001001111000100000 0"
b1 @"
0r
b11 }
b10001001111000100000 |
b0 W
1D
1#
14
1?
#51700
b1 W
#51800
b10 W
0D
0#
04
0?
#51900
b11 W
#52000
b10 @"
b10 A"
b0 W
1D
1#
14
1?
#52100
b1 W
#52200
b10 W
0D
0#
04
0?
#52300
b11 W
#52400
b11 A"
b11 @"
b0 W
1D
1#
14
1?
#52500
b1 W
#52600
b10 W
0D
0#
04
0?
#52700
b11 W
#52800
b100 @"
b100 A"
b0 W
1D
1#
14
1?
#52900
b1 W
#53000
b10 W
0D
0#
04
0?
#53100
b11 W
#53200
b101 A"
b101 @"
b0 W
1D
1#
14
1?
#53300
b1 W
#53400
b10 W
0D
0#
04
0?
#53500
b11 W
#53600
b110 @"
b110 A"
b0 W
1D
1#
14
1?
#53700
b1 W
#53800
b10 W
0D
0#
04
0?
#53900
b11 W
#54000
b111 A"
b111 @"
b0 W
1D
1#
14
1?
#54100
b1 W
#54200
b10 W
0D
0#
04
0?
#54300
b11 W
#54400
b1000 @"
b1000 A"
b0 W
1D
1#
14
1?
#54500
b1 W
#54600
b10 W
0D
0#
04
0?
#54700
b11 W
#54800
b1001 A"
b1001 @"
b0 W
1D
1#
14
1?
#54900
b1 W
#55000
b10 W
0D
0#
04
0?
#55100
b11 W
