jasper_library/hdl_sources/onehundred_gbe/kutleng/udp/testbench/iladata2.vcd
$date
        2018-Jun-01 10:47:23
$end
$version
        Vivado v2018.1 (64-bit)
$end
$timescale
        1ps
$end
$scope module dut $end
$var reg 512 " axis_rx_tdata_1 [511:0] $end
$var reg 1 L& axis_rx_tvalid_1 $end
$var reg 1 M& axis_rx_tuser_1 $end
$var reg 64 N& axis_rx_tkeep_1 [63:0] $end
$var reg 1 0' axis_rx_tlast_1 $end
$var reg 512 1' axis_tx_tdata_1 [511:0] $end
$var reg 1 [, axis_tx_tvalid_1 $end
$var reg 64 \, axis_tx_tkeep_1 [63:0] $end
$var reg 1 >- axis_tx_tlast_1 $end
$var reg 1 ?- axis_tx_tready_1 $end
$var reg 1 @- lbus_reset $end
$var reg 1 A- lbus1_tx_ovfout $end
$var reg 1 B- lbus1_tx_unfout $end
$var reg 1 C- RefClkLocked $end
$var reg 1 D- Reset $end
$var reg 1 E- qsfp1_intl_ls_IBUF $end
$var reg 1 F- _TRIGGER $end
$var reg 1 G- _WINDOW $end
$var reg 1 H- _GAP $end
$upscope $end
$enddefinitions $end
#0
$dumpvars
b111100000000000000000000000000000000000000000000000000000000000011110000000000000000000000000000000000000000000000000000000000001111000000000000000000000000000000000000000000000000000000000000000000010111001111111011101110111000000000000000000000000000000000000 "
0L&
0M&
b0 N&
00'
b0 1'
0[,
b0 \,
0>-
1?-
0@-
0A-
0B-
1C-
0D-
0E-
0F-
1G-
0H-
$end
#4
b10001010000000000000001000000010010111001000001100010000000000000000001000101000000000000100011000110110111101001110010011010000100010100000000000000010000000100101110010000011000100000000000000000010001010000000000001000110001101101111010011100100110100000110111101100100100100100000100000010001101010000101000000000 "
1F-
#5
b100001001000000010000100100000001000010010000000100001001000000010000100100000001000010010000000100001001000000010000100100000001000010010000000100001001000000010000100100000000110010000001101001110000000000001000000100111110111011101101000001010000010101010100011000000011010010000101010101000110000000111110000010100000100010100000000000000010000000100101110010000011000100000000000000000010001010000000000001000110001101101111010011100100110100000110111101100100100100100000100000010001101010000101000000000 "
1L&
b1111111111111111111111111111111111111111111111111111111111111111 N&
#6
b100001001000000010000100100000001000010010000000100001001000000010000100100000001000010010000000100001001000000010000100100000001000010010000000100001001000000010000100100000001000010010000000100001001000000010000100100000001000010010000000100001001000000010000100100000001000010010000000100001001000000010000100100000 "
0L&
b0 N&
#7
b111100000000000000000000000000000000010111110000001010101001101101011001000010010000000100001001000000010000100100000001000010010000000100001001000000010000100100000001000010010000000100001001000000010000100100000001000010010000000100001001000000010000100100000001000010010000000100001001000000010000100100000001000010010000000100001001000000010000100100000001000010010000000100001001000000010000100100000001000010010000000100001001000000010000100100000 "
1L&
b111111111111111111111111111111111111111111111111 N&
10'
#8
b111100000000000000000000000000000000000000000000000000000000000011110000000000000000000000000000000000000000000000000000000000001111000000000000000000000000000000000101111100000010101010011011010110010000100100000001000010010000000100001001000000010000100100000 "
0L&
b0 N&
00'
#21
b100001001000000010000100100000001000010010000000100001001000000010000100100000001000010010000000100001001000000010000100100000001000010010000000100001001000000010000100100000000110010000001101001110000000001101110111011010000100000010011101101001000010101010100011000000000010100000101010101000110000000111110000010100000100010100000000000000010000000100101110010000011000100000000000000000010001010000000000001000100100100100000100000010001101010000101000000000110001101101111010011100100110100000110111101100 1'
b1111111111111111111111111111111111111111111111111111111111111111 \,
#22
1[,
#23
b100001001000000010000100100000001000010010000000100001001000000010000100100000001000010010000000100001001000000010000100100000001000010010000000100001001000000010000100100000001000010010000000100001001000000010000100100000001000010010000000100001001000000010000100100000001000010010000000100001001000000010000100100000 1'
b1 \,
#24
b111100000000000000000000000000000000010111110000001010101001101101011001000010010000000100001001000000010000100100000001000010010000000100001001000000010000100100000001000010010000000100001001000000010000100100000001000010010000000100001001000000010000100100000001000010010000000100001001000000010000100100000001000010010000000100001001000000010000100100000001000010010000000100001001000000010000100100000001000010010000000100001001000000010000100100000 1'
b111111111111111111111111111111111111111111111111 \,
1>-
#25
b0 1'
0[,
b0 \,
0>-
#64
b101110011111110111011101110000000000000000000000000000000000000000000000000000000000000000000000000000000011110000000000000010000000000001010000000000000000000000000110000000110000001111001101011110100110100000110111101100000000001000000000000000000000000000000000000000110000001111001101011110100110100000110111101100 "
0G-
#68
b1101111011000000000100000000000001000000011000000000000010000000000100000000000001100000100011000110110111101001110010011010000011011110110000000001000000000000010000000110000000000000100000000001000000000000011000001000110001101101111010011100100110100000110111101100100100100100000100000010001101010000101000000000 "
0F-
#69
b1101110000110000000101110100101000000000000000000000000000000000000000000000000000000000000000000000000000000000000000000000000000000000000000000000000000000000000000000000000000010100000101010101000110000000000000000000000000000000000000000000000000000000110100100001010101010001100000011000110110111101001110010011010000011011110110000000001000000000000010000000110000000000000100000000001000000000000011000001000110001101101111010011100100110100000110111101100100100100100000100000010001101010000101000000000 "
1L&
b111111111111111111111111111111111111111111111111111111111111 N&
10'
#70
b1101110000110000000101110100101000000000000000000000000000000000000000000000000000000000000000000000000000000000000000000000000000000000000000000000000000000000000000000000000000010100000101010101000110000000000000000000000000000000000000000000000000000000110100100001010101010001100000011000110110111101001110010011010 "
0L&
b0 N&
00'
#79
b11010010000101010101000110000001100011011011110100111001001101000001101111011000000101000001010101010001100000010010010010000010000001000110101000010100000000000000010000000000000010000000110000000000000100000000001000000000000011000001000100100100100000100000010001101010000101000000000110001101101111010011100100110100000110111101100 1'
1[,
b111111111111111111111111111111111111111111111111111111111111 \,
1>-
#80
b0 1'
0[,
b0 \,
0>-
#82
b11010010000101010101000110000001100011011011110100111001001101000001101111011000000101000001010101010001100000010010010010000010000001000110101000010100000000000000010000000000000010000000110000000000000100000000001000000000000011000001000100100100100000100000010001101010000101000000000110001101101111010011100100110100000110111101100 1'
1[,
b111111111111111111111111111111111111111111111111111111111111 \,
1>-
#83
b0 1'
0[,
b0 \,
0>-
#85
b11010010000101010101000110000001100011011011110100111001001101000001101111011000000101000001010101010001100000010010010010000010000001000110101000010100000000000000010000000000000010000000110000000000000100000000001000000000000011000001000100100100100000100000010001101010000101000000000110001101101111010011100100110100000110111101100 1'
1[,
b111111111111111111111111111111111111111111111111111111111111 \,
1>-
#86
b0 1'
0[,
b0 \,
0>-
#88
b11010010000101010101000110000001100011011011110100111001001101000001101111011000000101000001010101010001100000010010010010000010000001000110101000010100000000000000010000000000000010000000110000000000000100000000001000000000000011000001000100100100100000100000010001101010000101000000000110001101101111010011100100110100000110111101100 1'
1[,
b111111111111111111111111111111111111111111111111111111111111 \,
1>-
#89
b0 1'
0[,
b0 \,
0>-
#91
b11010010000101010101000110000001100011011011110100111001001101000001101111011000000101000001010101010001100000010010010010000010000001000110101000010100000000000000010000000000000010000000110000000000000100000000001000000000000011000001000100100100100000100000010001101010000101000000000110001101101111010011100100110100000110111101100 1'
1[,
b111111111111111111111111111111111111111111111111111111111111 \,
1>-
#92
b0 1'
0[,
b0 \,
0>-
#94
b11010010000101010101000110000001100011011011110100111001001101000001101111011000000101000001010101010001100000010010010010000010000001000110101000010100000000000000010000000000000010000000110000000000000100000000001000000000000011000001000100100100100000100000010001101010000101000000000110001101101111010011100100110100000110111101100 1'
1[,
b111111111111111111111111111111111111111111111111111111111111 \,
1>-
#95
b0 1'
0[,
b0 \,
0>-
#97
b11010010000101010101000110000001100011011011110100111001001101000001101111011000000101000001010101010001100000010010010010000010000001000110101000010100000000000000010000000000000010000000110000000000000100000000001000000000000011000001000100100100100000100000010001101010000101000000000110001101101111010011100100110100000110111101100 1'
1[,
b111111111111111111111111111111111111111111111111111111111111 \,
1>-
#98
b0 1'
0[,
b0 \,
0>-
#100
b11010010000101010101000110000001100011011011110100111001001101000001101111011000000101000001010101010001100000010010010010000010000001000110101000010100000000000000010000000000000010000000110000000000000100000000001000000000000011000001000100100100100000100000010001101010000101000000000110001101101111010011100100110100000110111101100 1'
1[,
b111111111111111111111111111111111111111111111111111111111111 \,
1>-
#101
b0 1'
0[,
b0 \,
0>-
#103
b11010010000101010101000110000001100011011011110100111001001101000001101111011000000101000001010101010001100000010010010010000010000001000110101000010100000000000000010000000000000010000000110000000000000100000000001000000000000011000001000100100100100000100000010001101010000101000000000110001101101111010011100100110100000110111101100 1'
1[,
b111111111111111111111111111111111111111111111111111111111111 \,
1>-
#104
b0 1'
0[,
b0 \,
0>-
#106
b11010010000101010101000110000001100011011011110100111001001101000001101111011000000101000001010101010001100000010010010010000010000001000110101000010100000000000000010000000000000010000000110000000000000100000000001000000000000011000001000100100100100000100000010001101010000101000000000110001101101111010011100100110100000110111101100 1'
1[,
b111111111111111111111111111111111111111111111111111111111111 \,
1>-
#107
b0 1'
0[,
b0 \,
0>-
#109
b11010010000101010101000110000001100011011011110100111001001101000001101111011000000101000001010101010001100000010010010010000010000001000110101000010100000000000000010000000000000010000000110000000000000100000000001000000000000011000001000100100100100000100000010001101010000101000000000110001101101111010011100100110100000110111101100 1'
1[,
b111111111111111111111111111111111111111111111111111111111111 \,
1>-
#110
b0 1'
0[,
b0 \,
0>-
#112
b11010010000101010101000110000001100011011011110100111001001101000001101111011000000101000001010101010001100000010010010010000010000001000110101000010100000000000000010000000000000010000000110000000000000100000000001000000000000011000001000100100100100000100000010001101010000101000000000110001101101111010011100100110100000110111101100 1'
1[,
b111111111111111111111111111111111111111111111111111111111111 \,
1>-
#113
b0 1'
0[,
b0 \,
0>-
#115
b11010010000101010101000110000001100011011011110100111001001101000001101111011000000101000001010101010001100000010010010010000010000001000110101000010100000000000000010000000000000010000000110000000000000100000000001000000000000011000001000100100100100000100000010001101010000101000000000110001101101111010011100100110100000110111101100 1'
1[,
b111111111111111111111111111111111111111111111111111111111111 \,
1>-
#116
b0 1'
0[,
b0 \,
0>-
#118
b11010010000101010101000110000001100011011011110100111001001101000001101111011000000101000001010101010001100000010010010010000010000001000110101000010100000000000000010000000000000010000000110000000000000100000000001000000000000011000001000100100100100000100000010001101010000101000000000110001101101111010011100100110100000110111101100 1'
1[,
b111111111111111111111111111111111111111111111111111111111111 \,
1>-
#119
b0 1'
0[,
b0 \,
0>-
#121
b11010010000101010101000110000001100011011011110100111001001101000001101111011000000101000001010101010001100000010010010010000010000001000110101000010100000000000000010000000000000010000000110000000000000100000000001000000000000011000001000100100100100000100000010001101010000101000000000110001101101111010011100100110100000110111101100 1'
1[,
b111111111111111111111111111111111111111111111111111111111111 \,
1>-
#122
b0 1'
0[,
b0 \,
0>-
#124
b11010010000101010101000110000001100011011011110100111001001101000001101111011000000101000001010101010001100000010010010010000010000001000110101000010100000000000000010000000000000010000000110000000000000100000000001000000000000011000001000100100100100000100000010001101010000101000000000110001101101111010011100100110100000110111101100 1'
1[,
b111111111111111111111111111111111111111111111111111111111111 \,
1>-
#125
b0 1'
0[,
b0 \,
0>-
#127
b11010010000101010101000110000001100011011011110100111001001101000001101111011000000101000001010101010001100000010010010010000010000001000110101000010100000000000000010000000000000010000000110000000000000100000000001000000000000011000001000100100100100000100000010001101010000101000000000110001101101111010011100100110100000110111101100 1'
1[,
b111111111111111111111111111111111111111111111111111111111111 \,
1>-
