xps_base/XPS_ROACH_base/pcores/opb_katadccontroller_v1_00_a/tb/dump.vcd
$date
	Fri Jul 17 09:04:30 2009
$end
$version
	Icarus Verilog
$end
$timescale
	10ps
$end
$scope module TB_opb_katadccontroller $end
$var wire 32 ! OPB_ABus [0:31] $end
$var wire 4 " OPB_BE [0:3] $end
$var wire 1 # OPB_Clk $end
$var wire 32 $ OPB_DBus [0:31] $end
$var wire 1 % OPB_RNW $end
$var wire 1 & OPB_Rst $end
$var wire 1 ' OPB_select $end
$var wire 1 ( OPB_seqAddr $end
$var wire 32 ) SL_DBus [0:31] $end
$var wire 1 * Sl_errAck $end
$var wire 1 + Sl_retry $end
$var wire 1 , Sl_toutSup $end
$var wire 1 - Sl_xferAck $end
$var wire 1 . adc0_adc3wire_clk $end
$var wire 1 / adc0_adc3wire_data $end
$var wire 1 0 adc0_adc3wire_strobe $end
$var wire 1 1 adc0_adc_reset $end
$var wire 1 2 adc0_clk $end
$var wire 1 3 adc0_dcm_reset $end
$var wire 1 4 adc0_psclk $end
$var wire 1 5 adc0_psdone $end
$var wire 1 6 adc0_psen $end
$var wire 1 7 adc0_psincdec $end
$var wire 1 8 adc1_adc3wire_clk $end
$var wire 1 9 adc1_adc3wire_data $end
$var wire 1 : adc1_adc3wire_strobe $end
$var wire 1 ; adc1_adc_reset $end
$var wire 1 < adc1_clk $end
$var wire 1 = adc1_dcm_reset $end
$var wire 1 > adc1_psclk $end
$var wire 1 ? adc1_psdone $end
$var wire 1 @ adc1_psen $end
$var wire 1 A adc1_psincdec $end
$var wire 1 B sys_clk $end
$var wire 1 C sys_rst $end
$var reg 5 D config0_cntr [4:0] $end
$var reg 32 E config0_data [31:0] $end
$var reg 5 F config1_cntr [4:0] $end
$var reg 32 G config1_data [31:0] $end
$var reg 32 H opb_addr [31:0] $end
$var reg 4 I opb_be [3:0] $end
$var reg 32 J opb_data [31:0] $end
$var reg 1 K opb_rnw $end
$var reg 1 L opb_select $end
$var reg 32 M progress [31:0] $end
$var reg 1 N reset $end
$var reg 32 O sys_clk_counter [31:0] $end
$scope module opb_katadccontroller_inst $end
$var wire 32 P OPB_ABus [0:31] $end
$var wire 4 Q OPB_BE [0:3] $end
$var wire 1 # OPB_Clk $end
$var wire 32 R OPB_DBus [0:31] $end
$var wire 1 % OPB_RNW $end
$var wire 1 & OPB_Rst $end
$var wire 1 ' OPB_select $end
$var wire 1 ( OPB_seqAddr $end
$var wire 32 S SL_DBus [0:31] $end
$var wire 1 * Sl_errAck $end
$var wire 1 + Sl_retry $end
$var wire 1 , Sl_toutSup $end
$var wire 1 - Sl_xferAck $end
$var wire 1 . adc0_adc3wire_clk $end
$var wire 1 / adc0_adc3wire_data $end
$var wire 1 0 adc0_adc3wire_strobe $end
$var wire 1 1 adc0_adc_reset $end
$var wire 1 2 adc0_clk $end
$var wire 4 T adc0_config_addr [3:0] $end
$var wire 16 U adc0_config_data [15:0] $end
$var wire 1 V adc0_config_done $end
$var wire 1 W adc0_config_start $end
$var wire 1 X adc0_dcm_psen $end
$var wire 1 Y adc0_dcm_psincdec $end
$var wire 1 3 adc0_dcm_reset $end
$var wire 1 4 adc0_psclk $end
$var wire 1 5 adc0_psdone $end
$var wire 1 6 adc0_psen $end
$var wire 1 7 adc0_psincdec $end
$var wire 1 Z adc0_reset $end
$var wire 1 8 adc1_adc3wire_clk $end
$var wire 1 9 adc1_adc3wire_data $end
$var wire 1 : adc1_adc3wire_strobe $end
$var wire 1 ; adc1_adc_reset $end
$var wire 1 < adc1_clk $end
$var wire 4 [ adc1_config_addr [3:0] $end
$var wire 16 \ adc1_config_data [15:0] $end
$var wire 1 ] adc1_config_done $end
$var wire 1 ^ adc1_config_start $end
$var wire 1 _ adc1_dcm_psen $end
$var wire 1 ` adc1_dcm_psincdec $end
$var wire 1 = adc1_dcm_reset $end
$var wire 1 > adc1_psclk $end
$var wire 1 ? adc1_psdone $end
$var wire 1 @ adc1_psen $end
$var wire 1 A adc1_psincdec $end
$var wire 1 a adc1_reset $end
$var wire 1 b addr_match $end
$var wire 1 c clk0_done $end
$var wire 1 d clk0_en $end
$var wire 1 e clk1_done $end
$var wire 1 f clk1_en $end
$var wire 32 g opb_addr [31:0] $end
$var reg 4 h adc0_config_addr_reg [3:0] $end
$var reg 16 i adc0_config_data_reg [15:0] $end
$var reg 32 j adc0_config_data_shift [31:0] $end
$var reg 5 k adc0_config_progress [4:0] $end
$var reg 1 l adc0_config_start_reg $end
$var reg 1 m adc0_dcm_psen_reg $end
$var reg 1 n adc0_dcm_psincdec_reg $end
$var reg 8 o adc0_reset_counter [7:0] $end
$var reg 1 p adc0_reset_iob $end
$var reg 1 q adc0_reset_reg $end
$var reg 2 r adc0_state [1:0] $end
$var reg 4 s adc1_config_addr_reg [3:0] $end
$var reg 16 t adc1_config_data_reg [15:0] $end
$var reg 32 u adc1_config_data_shift [31:0] $end
$var reg 5 v adc1_config_progress [4:0] $end
$var reg 1 w adc1_config_start_reg $end
$var reg 1 x adc1_dcm_psen_reg $end
$var reg 1 y adc1_dcm_psincdec_reg $end
$var reg 8 z adc1_reset_counter [7:0] $end
$var reg 1 { adc1_reset_iob $end
$var reg 1 | adc1_reset_reg $end
$var reg 2 } adc1_state [1:0] $end
$var reg 4 ~ clk0_counter [3:0] $end
$var reg 4 !" clk1_counter [3:0] $end
$var reg 1 "" opb_ack $end
$var reg 32 #" opb_data_out [31:0] $end
$upscope $end
$upscope $end
$enddefinitions $end
#0
$dumpvars
bx #"
0""
b0 !"
b0 ~
b0 }
0|
x{
b0 z
xy
0x
0w
bx v
bx u
bx t
bx s
b0 r
0q
xp
b0 o
xn
0m
0l
bx k
bx j
bx i
bx h
bx g
0f
0e
0d
0c
xb
0a
x`
0_
0^
1]
bx \
bx [
0Z
xY
0X
0W
1V
bx U
bx T
bx S
bx R
bx Q
bx P
b0 O
1N
b0 M
0L
xK
bx J
bx I
bx H
bx G
b0 F
bx E
b0 D
1C
1B
zA
z@
z?
z>
0=
z<
x;
0:
x9
08
z7
z6
z5
z4
03
z2
x1
00
x/
0.
0-
0,
0+
0*
bx )
z(
0'
1&
x%
bx $
1#
bx "
bx !
$end
#100
b1 O
#200
b10 O
0B
0#
#300
b11 O
#400
0{
0p
0;
01
b0 O
1B
1#
#500
b1 O
#600
b10 O
0B
0#
#700
b11 O
#800
b0 O
1B
1#
#900
b1 O
#1000
b10 O
0B
0#
#1100
b11 O
#1200
b0 O
1B
1#
#1300
b1 O
#1400
b10 O
0B
0#
#1500
b11 O
#1600
b0 O
1B
1#
#1700
b1 O
#1800
b10 O
0B
0#
#1900
b11 O
#2000
b0zz000000x000x00000000000000000 #"
b0zz000000x000x00000000000000000 )
b0zz000000x000x00000000000000000 S
1b
b0 g
b1 M
1L
1'
b1 I
b1 "
b1 Q
b0 H
b0 !
b0 P
0K
0%
b11 J
b11 $
b11 R
b0 O
1B
1#
0N
0C
0&
#2100
b1 O
#2200
b10 O
0B
0#
#2300
b11 O
#2400
1|
1a
1q
1Z
1""
1-
b0 O
1B
1#
#2500
b1 O
#2600
b10 O
0B
0#
#2700
b11 O
#2800
b100 g
b10 M
b1111 I
b1111 "
b1111 Q
b100 H
b100 !
b100 P
b11011110101011010000100100000001 J
b11011110101011010000100100000001 $
b11011110101011010000100100000001 R
b11111111 z
1=
b11111111 o
13
1{
1p
1;
11
0|
0a
0q
0Z
0""
0-
b0 O
1B
1#
#2900
b1 O
#3000
b10 O
0B
0#
#3100
b11 O
#3200
b1101111010101101 i
b1101111010101101 U
b1001 h
b1001 T
1l
1W
1""
1-
b11111110 z
b11111110 o
0{
0p
0;
01
b0 O
1B
1#
#3300
b1 O
#3400
b10 O
0B
0#
#3500
b11 O
#3600
b1000 g
0/
b11 M
b1000 H
b1000 !
b1000 P
b10111110111011110000100000000001 J
b10111110111011110000100000000001 $
b10111110111011110000100000000001 R
b110011101111010101101 j
b1 r
0V
1d
b11111101 z
b11111101 o
0l
0W
0""
0-
b0 O
1B
1#
#3700
b1 O
#3800
b10 O
0B
0#
#3900
b11 O
#4000
b1011111011101111 t
b1011111011101111 \
b1000 s
b1000 [
1w
1^
1""
1-
b11111100 z
b11111100 o
b1 ~
b0 O
1B
1#
#4100
b1 O
#4200
b10 O
0B
0#
#4300
b11 O
#4400
09
0L
0'
b110001011111011101111 u
b1 }
0]
1f
b10 ~
b11111011 z
b11111011 o
0w
0^
0""
0-
b0 O
1B
1#
#4500
b1 O
#4600
b10 O
0B
0#
#4700
b11 O
#4800
b11111010 z
b11111010 o
b11 ~
b1 !"
b0 O
1B
1#
#4900
b1 O
#5000
b10 O
0B
0#
#5100
b11 O
#5200
b10 !"
b100 ~
b11111001 z
b11111001 o
b0 O
1B
1#
#5300
b1 O
#5400
b10 O
0B
0#
#5500
b11 O
#5600
b11111000 z
b11111000 o
b101 ~
b11 !"
b0 O
1B
1#
#5700
b1 O
#5800
b10 O
0B
0#
#5900
b11 O
#6000
b100 !"
b110 ~
b11110111 z
b11110111 o
b0 O
1B
1#
#6100
b1 O
#6200
b10 O
0B
0#
#6300
b11 O
#6400
b11110110 z
b11110110 o
b111 ~
b101 !"
b0 O
1B
1#
#6500
b1 O
#6600
b10 O
0B
0#
#6700
b11 O
#6800
1.
18
b110 !"
b1000 ~
b11110101 z
b11110101 o
b0 O
1B
1#
#6900
b1 O
#7000
b10 O
0B
0#
#7100
b11 O
#7200
b11110100 z
b11110100 o
b1001 ~
b111 !"
b0 O
1B
1#
#7300
b1 O
#7400
b10 O
0B
0#
#7500
b11 O
#7600
b1000 !"
b1010 ~
b11110011 z
b11110011 o
b0 O
1B
1#
#7700
b1 O
#7800
b10 O
0B
0#
#7900
b11 O
#8000
b11110010 z
b11110010 o
b1011 ~
b1001 !"
b0 O
1B
1#
#8100
b1 O
#8200
b10 O
0B
0#
#8300
b11 O
#8400
b1010 !"
b1100 ~
b11110001 z
b11110001 o
b0 O
1B
1#
#8500
b1 O
#8600
b10 O
0B
0#
#8700
b11 O
#8800
b11110000 z
b11110000 o
b1101 ~
b1011 !"
b0 O
1B
1#
#8900
b1 O
#9000
b10 O
0B
0#
#9100
b11 O
#9200
b1100 !"
b1110 ~
b11101111 z
b11101111 o
b0 O
1B
1#
#9300
b1 O
#9400
b10 O
0B
0#
#9500
b11 O
#9600
b11101110 z
b11101110 o
b1111 ~
1c
b1101 !"
b0 O
1B
1#
#9700
b1 O
#9800
b10 O
0B
0#
#9900
b11 O
#10000
0.
08
b1110 !"
b0 ~
0c
b0 k
b10 r
10
b11101101 z
b11101101 o
b0 O
1B
1#
#10100
b1 O
#10200
b10 O
0B
0#
#10300
b11 O
#10400
b11101100 z
b11101100 o
b1 ~
b1111 !"
1e
b0 O
1B
1#
#10500
b1 O
#10600
b10 O
0B
0#
#10700
b11 O
#10800
b0 !"
0e
b0 v
b10 }
1:
b10 ~
b11101011 z
b11101011 o
b0 O
1B
1#
#10900
b1 O
#11000
b10 O
0B
0#
#11100
b11 O
#11200
b11101010 z
b11101010 o
b11 ~
b1 !"
b0 O
1B
1#
#11300
b1 O
#11400
b10 O
0B
0#
#11500
b11 O
#11600
b10 !"
b100 ~
b11101001 z
b11101001 o
b0 O
1B
1#
#11700
b1 O
#11800
b10 O
0B
0#
#11900
b11 O
#12000
b11101000 z
b11101000 o
b101 ~
b11 !"
b0 O
1B
1#
#12100
b1 O
#12200
b10 O
0B
0#
#12300
b11 O
#12400
b100 !"
b110 ~
b11100111 z
b11100111 o
b0 O
1B
1#
#12500
b1 O
#12600
b10 O
0B
0#
#12700
b11 O
#12800
b11100110 z
b11100110 o
b111 ~
b101 !"
b0 O
1B
1#
#12900
b1 O
#13000
b10 O
0B
0#
#13100
b11 O
#13200
b1 D
b0xxxxxxxxxxxxxxxxxxxxxxxxxxxxxxx E
b1 F
b0xxxxxxxxxxxxxxxxxxxxxxxxxxxxxxx G
1.
18
b110 !"
b1000 ~
b11100101 z
b11100101 o
b0 O
1B
1#
#13300
b1 O
#13400
b10 O
0B
0#
#13500
b11 O
#13600
b11100100 z
b11100100 o
b1001 ~
b111 !"
b0 O
1B
1#
#13700
b1 O
#13800
b10 O
0B
0#
#13900
b11 O
#14000
b1000 !"
b1010 ~
b11100011 z
b11100011 o
b0 O
1B
1#
#14100
b1 O
#14200
b10 O
0B
0#
#14300
b11 O
#14400
b11100010 z
b11100010 o
b1011 ~
b1001 !"
b0 O
1B
1#
#14500
b1 O
#14600
b10 O
0B
0#
#14700
b11 O
#14800
b1010 !"
b1100 ~
b11100001 z
b11100001 o
b0 O
1B
1#
#14900
b1 O
#15000
b10 O
0B
0#
#15100
b11 O
#15200
b11100000 z
b11100000 o
b1101 ~
b1011 !"
b0 O
1B
1#
#15300
b1 O
#15400
b10 O
0B
0#
#15500
b11 O
#15600
b1100 !"
b1110 ~
b11011111 z
b11011111 o
b0 O
1B
1#
#15700
b1 O
#15800
b10 O
0B
0#
#15900
b11 O
#16000
b11011110 z
b11011110 o
b1111 ~
1c
b1101 !"
b0 O
1B
1#
#16100
b1 O
#16200
b10 O
0B
0#
#16300
b11 O
#16400
0.
08
b1110 !"
b0 ~
0c
b1 k
b1100111011110101011010 j
b11011101 z
b11011101 o
b0 O
1B
1#
#16500
b1 O
#16600
b10 O
0B
0#
#16700
b11 O
#16800
b11011100 z
b11011100 o
b1 ~
b1111 !"
1e
b0 O
1B
1#
#16900
b1 O
#17000
b10 O
0B
0#
#17100
b11 O
#17200
b0 !"
0e
b1 v
b1100010111110111011110 u
b10 ~
b11011011 z
b11011011 o
b0 O
1B
1#
#17300
b1 O
#17400
b10 O
0B
0#
#17500
b11 O
#17600
b11011010 z
b11011010 o
b11 ~
b1 !"
b0 O
1B
1#
#17700
b1 O
#17800
b10 O
0B
0#
#17900
b11 O
#18000
b10 !"
b100 ~
b11011001 z
b11011001 o
b0 O
1B
1#
#18100
b1 O
#18200
b10 O
0B
0#
#18300
b11 O
#18400
b11011000 z
b11011000 o
b101 ~
b11 !"
b0 O
1B
1#
#18500
b1 O
#18600
b10 O
0B
0#
#18700
b11 O
#18800
b100 !"
b110 ~
b11010111 z
b11010111 o
b0 O
1B
1#
#18900
b1 O
#19000
b10 O
0B
0#
#19100
b11 O
#19200
b11010110 z
b11010110 o
b111 ~
b101 !"
b0 O
1B
1#
#19300
b1 O
#19400
b10 O
0B
0#
#19500
b11 O
#19600
b10 D
b0xxxxxxxxxxxxxxxxxxxxxxxxxxxxxx E
b10 F
b0xxxxxxxxxxxxxxxxxxxxxxxxxxxxxx G
1.
18
b110 !"
b1000 ~
b11010101 z
b11010101 o
b0 O
1B
1#
#19700
b1 O
#19800
b10 O
0B
0#
#19900
b11 O
#20000
b11010100 z
b11010100 o
b1001 ~
b111 !"
b0 O
1B
1#
#20100
b1 O
#20200
b10 O
0B
0#
#20300
b11 O
#20400
b1000 !"
b1010 ~
b11010011 z
b11010011 o
b0 O
1B
1#
#20500
b1 O
#20600
b10 O
0B
0#
#20700
b11 O
#20800
b11010010 z
b11010010 o
b1011 ~
b1001 !"
b0 O
1B
1#
#20900
b1 O
#21000
b10 O
0B
0#
#21100
b11 O
#21200
b1010 !"
b1100 ~
b11010001 z
b11010001 o
b0 O
1B
1#
#21300
b1 O
#21400
b10 O
0B
0#
#21500
b11 O
#21600
b11010000 z
b11010000 o
b1101 ~
b1011 !"
b0 O
1B
1#
#21700
b1 O
#21800
b10 O
0B
0#
#21900
b11 O
#22000
b1100 !"
b1110 ~
b11001111 z
b11001111 o
b0 O
1B
1#
#22100
b1 O
#22200
b10 O
0B
0#
#22300
b11 O
#22400
b11001110 z
b11001110 o
b1111 ~
1c
b1101 !"
b0 O
1B
1#
#22500
b1 O
#22600
b10 O
0B
0#
#22700
b11 O
#22800
0.
08
b1110 !"
b0 ~
0c
b10 k
b11001110111101010110100 j
b11001101 z
b11001101 o
b0 O
1B
1#
#22900
b1 O
#23000
b10 O
0B
0#
#23100
b11 O
#23200
b11001100 z
b11001100 o
b1 ~
b1111 !"
1e
b0 O
1B
1#
#23300
b1 O
#23400
b10 O
0B
0#
#23500
b11 O
#23600
b0 !"
0e
b10 v
b11000101111101110111100 u
b10 ~
b11001011 z
b11001011 o
b0 O
1B
1#
#23700
b1 O
#23800
b10 O
0B
0#
#23900
b11 O
#24000
b11001010 z
b11001010 o
b11 ~
b1 !"
b0 O
1B
1#
#24100
b1 O
#24200
b10 O
0B
0#
#24300
b11 O
#24400
b10 !"
b100 ~
b11001001 z
b11001001 o
b0 O
1B
1#
#24500
b1 O
#24600
b10 O
0B
0#
#24700
b11 O
#24800
b11001000 z
b11001000 o
b101 ~
b11 !"
b0 O
1B
1#
#24900
b1 O
#25000
b10 O
0B
0#
#25100
b11 O
#25200
b100 !"
b110 ~
b11000111 z
b11000111 o
b0 O
1B
1#
#25300
b1 O
#25400
b10 O
0B
0#
#25500
b11 O
#25600
b11000110 z
b11000110 o
b111 ~
b101 !"
b0 O
1B
1#
#25700
b1 O
#25800
b10 O
0B
0#
#25900
b11 O
#26000
b11 D
b0xxxxxxxxxxxxxxxxxxxxxxxxxxxxx E
b11 F
b0xxxxxxxxxxxxxxxxxxxxxxxxxxxxx G
1.
18
b110 !"
b1000 ~
b11000101 z
b11000101 o
b0 O
1B
1#
#26100
b1 O
#26200
b10 O
0B
0#
#26300
b11 O
#26400
b11000100 z
b11000100 o
b1001 ~
b111 !"
b0 O
1B
1#
#26500
b1 O
#26600
b10 O
0B
0#
#26700
b11 O
#26800
b1000 !"
b1010 ~
b11000011 z
b11000011 o
b0 O
1B
1#
#26900
b1 O
#27000
b10 O
0B
0#
#27100
b11 O
#27200
b11000010 z
b11000010 o
b1011 ~
b1001 !"
b0 O
1B
1#
#27300
b1 O
#27400
b10 O
0B
0#
#27500
b11 O
#27600
b1010 !"
b1100 ~
b11000001 z
b11000001 o
b0 O
1B
1#
#27700
b1 O
#27800
b10 O
0B
0#
#27900
b11 O
#28000
b11000000 z
b11000000 o
b1101 ~
b1011 !"
b0 O
1B
1#
#28100
b1 O
#28200
b10 O
0B
0#
#28300
b11 O
#28400
b1100 !"
b1110 ~
b10111111 z
b10111111 o
b0 O
1B
1#
#28500
b1 O
#28600
b10 O
0B
0#
#28700
b11 O
#28800
b10111110 z
b10111110 o
b1111 ~
1c
b1101 !"
b0 O
1B
1#
#28900
b1 O
#29000
b10 O
0B
0#
#29100
b11 O
#29200
0.
08
b1110 !"
b0 ~
0c
b11 k
b110011101111010101101000 j
b10111101 z
b10111101 o
b0 O
1B
1#
#29300
b1 O
#29400
b10 O
0B
0#
#29500
b11 O
#29600
b10111100 z
b10111100 o
b1 ~
b1111 !"
1e
b0 O
1B
1#
#29700
b1 O
#29800
b10 O
0B
0#
#29900
b11 O
#30000
b0 !"
0e
b11 v
b110001011111011101111000 u
b10 ~
b10111011 z
b10111011 o
b0 O
1B
1#
#30100
b1 O
#30200
b10 O
0B
0#
#30300
b11 O
#30400
b10111010 z
b10111010 o
b11 ~
b1 !"
b0 O
1B
1#
#30500
b1 O
#30600
b10 O
0B
0#
#30700
b11 O
#30800
b10 !"
b100 ~
b10111001 z
b10111001 o
b0 O
1B
1#
#30900
b1 O
#31000
b10 O
0B
0#
#31100
b11 O
#31200
b10111000 z
b10111000 o
b101 ~
b11 !"
b0 O
1B
1#
#31300
b1 O
#31400
b10 O
0B
0#
#31500
b11 O
#31600
b100 !"
b110 ~
b10110111 z
b10110111 o
b0 O
1B
1#
#31700
b1 O
#31800
b10 O
0B
0#
#31900
b11 O
#32000
b10110110 z
b10110110 o
b111 ~
b101 !"
b0 O
1B
1#
#32100
b1 O
#32200
b10 O
0B
0#
#32300
b11 O
#32400
b100 D
b0xxxxxxxxxxxxxxxxxxxxxxxxxxxx E
b100 F
b0xxxxxxxxxxxxxxxxxxxxxxxxxxxx G
1.
18
b110 !"
b1000 ~
b10110101 z
b10110101 o
b0 O
1B
1#
#32500
b1 O
#32600
b10 O
0B
0#
#32700
b11 O
#32800
b10110100 z
b10110100 o
b1001 ~
b111 !"
b0 O
1B
1#
#32900
b1 O
#33000
b10 O
0B
0#
#33100
b11 O
#33200
b1000 !"
b1010 ~
b10110011 z
b10110011 o
b0 O
1B
1#
#33300
b1 O
#33400
b10 O
0B
0#
#33500
b11 O
#33600
b10110010 z
b10110010 o
b1011 ~
b1001 !"
b0 O
1B
1#
#33700
b1 O
#33800
b10 O
0B
0#
#33900
b11 O
#34000
b1010 !"
b1100 ~
b10110001 z
b10110001 o
b0 O
1B
1#
#34100
b1 O
#34200
b10 O
0B
0#
#34300
b11 O
#34400
b10110000 z
b10110000 o
b1101 ~
b1011 !"
b0 O
1B
1#
#34500
b1 O
#34600
b10 O
0B
0#
#34700
b11 O
#34800
b1100 !"
b1110 ~
b10101111 z
b10101111 o
b0 O
1B
1#
#34900
b1 O
#35000
b10 O
0B
0#
#35100
b11 O
#35200
b10101110 z
b10101110 o
b1111 ~
1c
b1101 !"
b0 O
1B
1#
#35300
b1 O
#35400
b10 O
0B
0#
#35500
b11 O
#35600
0.
08
b1110 !"
b0 ~
0c
b100 k
b1100111011110101011010000 j
b10101101 z
b10101101 o
b0 O
1B
1#
#35700
b1 O
#35800
b10 O
0B
0#
#35900
b11 O
#36000
b10101100 z
b10101100 o
b1 ~
b1111 !"
1e
b0 O
1B
1#
#36100
b1 O
#36200
b10 O
0B
0#
#36300
b11 O
#36400
b0 !"
0e
b100 v
b1100010111110111011110000 u
b10 ~
b10101011 z
b10101011 o
b0 O
1B
1#
#36500
b1 O
#36600
b10 O
0B
0#
#36700
b11 O
#36800
b10101010 z
b10101010 o
b11 ~
b1 !"
b0 O
1B
1#
#36900
b1 O
#37000
b10 O
0B
0#
#37100
b11 O
#37200
b10 !"
b100 ~
b10101001 z
b10101001 o
b0 O
1B
1#
#37300
b1 O
#37400
b10 O
0B
0#
#37500
b11 O
#37600
b10101000 z
b10101000 o
b101 ~
b11 !"
b0 O
1B
1#
#37700
b1 O
#37800
b10 O
0B
0#
#37900
b11 O
#38000
b100 !"
b110 ~
b10100111 z
b10100111 o
b0 O
1B
1#
#38100
b1 O
#38200
b10 O
0B
0#
#38300
b11 O
#38400
b10100110 z
b10100110 o
b111 ~
b101 !"
b0 O
1B
1#
#38500
b1 O
#38600
b10 O
0B
0#
#38700
b11 O
#38800
b101 D
b0xxxxxxxxxxxxxxxxxxxxxxxxxxx E
b101 F
b0xxxxxxxxxxxxxxxxxxxxxxxxxxx G
1.
18
b110 !"
b1000 ~
b10100101 z
b10100101 o
b0 O
1B
1#
#38900
b1 O
#39000
b10 O
0B
0#
#39100
b11 O
#39200
b10100100 z
b10100100 o
b1001 ~
b111 !"
b0 O
1B
1#
#39300
b1 O
#39400
b10 O
0B
0#
#39500
b11 O
#39600
b1000 !"
b1010 ~
b10100011 z
b10100011 o
b0 O
1B
1#
#39700
b1 O
#39800
b10 O
0B
0#
#39900
b11 O
#40000
b10100010 z
b10100010 o
b1011 ~
b1001 !"
b0 O
1B
1#
#40100
b1 O
#40200
b10 O
0B
0#
#40300
b11 O
#40400
b1010 !"
b1100 ~
b10100001 z
b10100001 o
b0 O
1B
1#
#40500
b1 O
#40600
b10 O
0B
0#
#40700
b11 O
#40800
b10100000 z
b10100000 o
b1101 ~
b1011 !"
b0 O
1B
1#
#40900
b1 O
#41000
b10 O
0B
0#
#41100
b11 O
#41200
b1100 !"
b1110 ~
b10011111 z
b10011111 o
b0 O
1B
1#
#41300
b1 O
#41400
b10 O
0B
0#
#41500
b11 O
#41600
b10011110 z
b10011110 o
b1111 ~
1c
b1101 !"
b0 O
1B
1#
#41700
b1 O
#41800
b10 O
0B
0#
#41900
b11 O
#42000
0.
08
b1110 !"
b0 ~
0c
b101 k
b11001110111101010110100000 j
b10011101 z
b10011101 o
b0 O
1B
1#
#42100
b1 O
#42200
b10 O
0B
0#
#42300
b11 O
#42400
b10011100 z
b10011100 o
b1 ~
b1111 !"
1e
b0 O
1B
1#
#42500
b1 O
#42600
b10 O
0B
0#
#42700
b11 O
#42800
b0 !"
0e
b101 v
b11000101111101110111100000 u
b10 ~
b10011011 z
b10011011 o
b0 O
1B
1#
#42900
b1 O
#43000
b10 O
0B
0#
#43100
b11 O
#43200
b10011010 z
b10011010 o
b11 ~
b1 !"
b0 O
1B
1#
#43300
b1 O
#43400
b10 O
0B
0#
#43500
b11 O
#43600
b10 !"
b100 ~
b10011001 z
b10011001 o
b0 O
1B
1#
#43700
b1 O
#43800
b10 O
0B
0#
#43900
b11 O
#44000
b10011000 z
b10011000 o
b101 ~
b11 !"
b0 O
1B
1#
#44100
b1 O
#44200
b10 O
0B
0#
#44300
b11 O
#44400
b100 !"
b110 ~
b10010111 z
b10010111 o
b0 O
1B
1#
#44500
b1 O
#44600
b10 O
0B
0#
#44700
b11 O
#44800
b10010110 z
b10010110 o
b111 ~
b101 !"
b0 O
1B
1#
#44900
b1 O
#45000
b10 O
0B
0#
#45100
b11 O
#45200
b110 D
b0xxxxxxxxxxxxxxxxxxxxxxxxxx E
b110 F
b0xxxxxxxxxxxxxxxxxxxxxxxxxx G
1.
18
b110 !"
b1000 ~
b10010101 z
b10010101 o
b0 O
1B
1#
#45300
b1 O
#45400
b10 O
0B
0#
#45500
b11 O
#45600
b10010100 z
b10010100 o
b1001 ~
b111 !"
b0 O
1B
1#
#45700
b1 O
#45800
b10 O
0B
0#
#45900
b11 O
#46000
b1000 !"
b1010 ~
b10010011 z
b10010011 o
b0 O
1B
1#
#46100
b1 O
#46200
b10 O
0B
0#
#46300
b11 O
#46400
b10010010 z
b10010010 o
b1011 ~
b1001 !"
b0 O
1B
1#
#46500
b1 O
#46600
b10 O
0B
0#
#46700
b11 O
#46800
b1010 !"
b1100 ~
b10010001 z
b10010001 o
b0 O
1B
1#
#46900
b1 O
#47000
b10 O
0B
0#
#47100
b11 O
#47200
b10010000 z
b10010000 o
b1101 ~
b1011 !"
b0 O
1B
1#
#47300
b1 O
#47400
b10 O
0B
0#
#47500
b11 O
#47600
b1100 !"
b1110 ~
b10001111 z
b10001111 o
b0 O
1B
1#
#47700
b1 O
#47800
b10 O
0B
0#
#47900
b11 O
#48000
b10001110 z
b10001110 o
b1111 ~
1c
b1101 !"
b0 O
1B
1#
#48100
b1 O
#48200
b10 O
0B
0#
#48300
b11 O
#48400
0.
08
b1110 !"
b0 ~
0c
b110 k
b110011101111010101101000000 j
b10001101 z
b10001101 o
b0 O
1B
1#
#48500
b1 O
#48600
b10 O
0B
0#
#48700
b11 O
#48800
b10001100 z
b10001100 o
b1 ~
b1111 !"
1e
b0 O
1B
1#
#48900
b1 O
#49000
b10 O
0B
0#
#49100
b11 O
#49200
b0 !"
0e
b110 v
b110001011111011101111000000 u
b10 ~
b10001011 z
b10001011 o
b0 O
1B
1#
#49300
b1 O
#49400
b10 O
0B
0#
#49500
b11 O
#49600
b10001010 z
b10001010 o
b11 ~
b1 !"
b0 O
1B
1#
#49700
b1 O
#49800
b10 O
0B
0#
#49900
b11 O
#50000
b10 !"
b100 ~
b10001001 z
b10001001 o
b0 O
1B
1#
#50100
b1 O
#50200
b10 O
0B
0#
#50300
b11 O
#50400
b10001000 z
b10001000 o
b101 ~
b11 !"
b0 O
1B
1#
#50500
b1 O
#50600
b10 O
0B
0#
#50700
b11 O
#50800
b100 !"
b110 ~
b10000111 z
b10000111 o
b0 O
1B
1#
#50900
b1 O
#51000
b10 O
0B
0#
#51100
b11 O
#51200
b10000110 z
b10000110 o
b111 ~
b101 !"
b0 O
1B
1#
#51300
b1 O
#51400
b10 O
0B
0#
#51500
b11 O
#51600
b111 D
b0xxxxxxxxxxxxxxxxxxxxxxxxx E
b111 F
b0xxxxxxxxxxxxxxxxxxxxxxxxx G
1.
18
b110 !"
b1000 ~
b10000101 z
b10000101 o
b0 O
1B
1#
#51700
b1 O
#51800
b10 O
0B
0#
#51900
b11 O
#52000
b10000100 z
b10000100 o
b1001 ~
b111 !"
b0 O
1B
1#
#52100
b1 O
#52200
b10 O
0B
0#
#52300
b11 O
#52400
b1000 !"
b1010 ~
b10000011 z
b10000011 o
b0 O
1B
1#
#52500
b1 O
#52600
b10 O
0B
0#
#52700
b11 O
#52800
b10000010 z
b10000010 o
b1011 ~
b1001 !"
b0 O
1B
1#
#52900
b1 O
#53000
b10 O
0B
0#
#53100
b11 O
#53200
b1010 !"
b1100 ~
b10000001 z
b10000001 o
b0 O
1B
1#
#53300
b1 O
#53400
b10 O
0B
0#
#53500
b11 O
#53600
b10000000 z
b10000000 o
b1101 ~
b1011 !"
b0 O
1B
1#
#53700
b1 O
#53800
b10 O
0B
0#
#53900
b11 O
#54000
b1100 !"
b1110 ~
b1111111 z
b1111111 o
b0 O
1B
1#
#54100
b1 O
#54200
b10 O
0B
0#
#54300
b11 O
#54400
b1111110 z
b1111110 o
b1111 ~
1c
b1101 !"
b0 O
1B
1#
#54500
b1 O
#54600
b10 O
0B
0#
#54700
b11 O
#54800
0.
08
b1110 !"
b0 ~
0c
b111 k
b1100111011110101011010000000 j
b1111101 z
b1111101 o
b0 O
1B
1#
#54900
b1 O
#55000
b10 O
0B
0#
#55100
b11 O
#55200
b1111100 z
b1111100 o
b1 ~
b1111 !"
1e
b0 O
1B
1#
#55300
b1 O
#55400
b10 O
0B
0#
#55500
b11 O
#55600
b0 !"
0e
b111 v
b1100010111110111011110000000 u
b10 ~
b1111011 z
b1111011 o
b0 O
1B
1#
#55700
b1 O
#55800
b10 O
0B
0#
#55900
b11 O
#56000
b1111010 z
b1111010 o
b11 ~
b1 !"
b0 O
1B
1#
#56100
b1 O
#56200
b10 O
0B
0#
#56300
b11 O
#56400
b10 !"
b100 ~
b1111001 z
b1111001 o
b0 O
1B
1#
#56500
b1 O
